<svg width="24" height="24" viewBox="0 0 24 24" version="1.1" xmlns="http://www.w3.org/2000/svg" xmlns:xlink="http://www.w3.org/1999/xlink">
<title>icon-dropdown</title>
<desc>Created using Figma</desc>
<g id="Canvas" transform="translate(428 234)">
<clipPath id="clip-0" clip-rule="evenodd">
<path d="M -428 -234L -404 -234L -404 -210L -428 -210L -428 -234Z" fill="#FFFFFF"/>
</clipPath>
<g id="icon-dropdown" clip-path="url(#clip-0)">
<g id="Vector">
<use xlink:href="#path0_fill" transform="translate(-421 -224)" fill="#8DC73F"/>
</g>
</g>
</g>
<defs>
<path id="path0_fill" d="M 0 0L 5 5L 10 0L 0 0Z"/>
</defs>
</svg>
